Indiana Total Gasoline Wholesale per Resale Price by Refiners,
https://www.eia.gov/dnav/pet/hist/LeafHandler.ashx?n=PET&s=EMA_EPM0_PWG_SIN_DPG&f=M,
22:23:03 GMT-0400 (Eastern Daylight Time),
Source: U.S. Energy Information Administration,
Month,Indiana Total Gasoline Wholesale/Resale Price by Refiners Dollars per Gallon
Jan-20,1.603
Dec-19,1.651
Nov-19,1.634
Oct-19,1.671
Sep-19,1.724
Aug-19,1.74
Jul-19,1.944
Jun-19,1.857
May-19,2.041
Apr-19,2.034
Mar-19,1.786
Feb-19,1.542
Jan-19,1.309
Dec-18,1.338
Nov-18,1.6
Oct-18,1.957
Sep-18,2.073
Aug-18,2.054
Jul-18,2.096
Jun-18,2.055
May-18,2.119
Apr-18,1.94
Mar-18,1.76
Feb-18,1.672
Jan-18,1.765
Dec-17,1.672
Nov-17,1.76
Oct-17,1.702
Sep-17,1.657
Aug-17,1.624
Jul-17,1.542
Jun-17,1.493
May-17,1.585
Apr-17,1.675
Mar-17,1.536
Feb-17,1.505
Jan-17,1.545
Dec-16,1.55
Nov-16,1.364
Oct-16,1.475
Sep-16,1.45
Aug-16,1.504
Jul-16,1.416
Jun-16,1.678
May-16,1.648
Apr-16,1.464
Mar-16,1.269
Feb-16,0.938
Jan-16,1.041
Dec-15,1.265
Nov-15,1.317
Oct-15,1.623
Sep-15,1.619
Aug-15,1.799
Jul-15,1.925
Jun-15,2.073
May-15,1.97
Apr-15,1.721
Mar-15,1.632
Feb-15,1.571
Jan-15,1.274
Dec-14,1.575
Nov-14,2.123
Oct-14,2.319
Sep-14,2.632
Aug-14,2.679
Jul-14,2.732
Jun-14,3.007
May-14,3.007
Apr-14,2.985
Mar-14,2.89
Feb-14,2.672
Jan-14,2.544
Dec-13,2.501
Nov-13,2.475
Oct-13,2.59
Sep-13,2.774
Aug-13,2.844
Jul-13,2.92
Jun-13,2.962
May-13,3.105
Apr-13,2.873
Mar-13,2.937
Feb-13,2.998
Jan-13,2.595
Dec-12,2.517
Nov-12,2.718
Oct-12,2.806
Sep-12,3.181
Aug-12,3.161
Jul-12,2.777
Jun-12,2.767
May-12,3.011
Apr-12,3.145
Mar-12,3.238
Feb-12,2.783
Jan-12,2.671
Dec-11,2.572
Nov-11,2.625
Oct-11,2.699
Sep-11,2.857
Aug-11,2.964
Jul-11,3.07
Jun-11,2.975
May-11,3.255
Apr-11,3.233
Mar-11,2.876
Feb-11,2.527
Jan-11,2.431
Dec-10,2.343
Nov-10,2.218
Oct-10,2.164
Sep-10,2.078
Aug-10,2.05
Jul-10,2.072
Jun-10,2.077
May-10,2.116
Apr-10,2.252
Mar-10,2.144
Feb-10,1.948
Jan-10,2.044
Dec-09,1.954
Nov-09,1.984
Oct-09,1.968
Sep-09,1.836
Aug-09,1.973
Jul-09,1.84
Jun-09,2.077
May-09,1.804
Apr-09,1.469
Mar-09,1.374
Feb-09,1.284
Jan-09,1.29
Dec-08,1.064
Nov-08,1.31
Oct-08,2.198
Sep-08,3.089
Aug-08,3.109
Jul-08,3.279
Jun-08,3.365
May-08,3.184
Apr-08,2.838
Mar-08,2.585
Feb-08,2.37
Jan-08,2.353
Dec-07,2.314
Nov-07,2.446
Oct-07,2.195
Sep-07,2.267
Aug-07,2.217
Jul-07,2.29
Jun-07,2.364
May-07,2.62
Apr-07,2.211
Mar-07,1.902
Feb-07,1.713
Jan-07,1.467
Dec-06,1.671
Nov-06,1.649
Oct-06,1.596
Sep-06,1.703
Aug-06,2.272
Jul-06,2.396
Jun-06,2.244
May-06,2.195
Apr-06,2.193
Mar-06,1.881
Feb-06,1.652
Jan-06,1.724
Dec-05,1.605
Nov-05,1.568
Oct-05,1.983
Sep-05,2.186
Aug-05,1.981
Jul-05,1.676
Jun-05,1.576
May-05,1.484
Apr-05,1.594
Mar-05,1.514
Feb-05,1.338
Jan-05,1.275
Dec-04,1.158
Nov-04,1.35
Oct-04,1.437
Sep-04,1.31
Aug-04,1.305
Jul-04,1.323
Jun-04,1.296
May-04,1.432
Apr-04,1.251
Mar-04,1.163
Feb-04,1.106
Jan-04,1.039
Dec-03,0.907
Nov-03,0.914
Oct-03,0.96
Sep-03,1.001
Aug-03,1.084
Jul-03,0.964
Jun-03,0.947
May-03,0.918
Apr-03,0.95
Mar-03,1.083
Feb-03,1.097
Jan-03,0.926
Dec-02,0.838
Nov-02,0.834
Oct-02,0.959
Sep-02,0.875
Aug-02,0.852
Jul-02,0.878
Jun-02,0.86
May-02,0.862
Apr-02,0.848
Mar-02,0.776
Feb-02,0.61
Jan-02,0.608
Dec-01,0.586
Nov-01,0.617
Oct-01,0.709
Sep-01,1.008
Aug-01,0.969
Jul-01,0.785
Jun-01,0.955
May-01,1.242
Apr-01,1.087
Mar-01,0.871
Feb-01,0.896
Jan-01,0.956
Dec-00,0.865
Nov-00,1
Oct-00,0.999
Sep-00,1.018
Aug-00,0.895
Jul-00,0.924
Jun-00,1.204
May-00,0.974
Apr-00,0.844
Mar-00,0.954
Feb-00,0.901
Jan-00,0.79
Dec-99,0.737
Nov-99,0.74
Oct-99,0.682
Sep-99,0.73
Aug-99,0.688
Jul-99,0.651
Jun-99,0.586
May-99,0.587
Apr-99,0.581
Mar-99,0.491
Feb-99,0.381
Jan-99,0.42
Dec-98,0.387
Nov-98,0.441
Oct-98,0.497
Sep-98,0.49
Aug-98,0.481
Jul-98,0.535
Jun-98,0.548
May-98,0.576
Apr-98,0.547
Mar-98,0.511
Feb-98,0.529
Jan-98,0.53
Dec-97,0.576
Nov-97,0.617
Oct-97,0.635
Sep-97,0.674
Aug-97,0.731
Jul-97,0.667
Jun-97,0.666
May-97,0.7
Apr-97,0.671
Mar-97,0.659
Feb-97,0.705
Jan-97,0.746
Dec-96,0.726
Nov-96,0.772
Oct-96,0.722
Sep-96,0.691
Aug-96,0.667
Jul-96,0.681
Jun-96,0.691
May-96,0.755
Apr-96,0.732
Mar-96,0.665
Feb-96,0.597
Jan-96,0.584
Dec-95,0.587
Nov-95,0.553
Oct-95,0.547
Sep-95,0.597
Aug-95,0.584
Jul-95,0.595
Jun-95,0.665
May-95,0.712
Apr-95,0.653
Mar-95,0.569
Feb-95,0.552
Jan-95,0.556
Dec-94,0.513
Nov-94,0.571
Oct-94,0.563
Sep-94,0.572
Aug-94,0.671
Jul-94,0.644
Jun-94,0.619
May-94,0.574
Apr-94,0.56
Mar-94,0.513
Feb-94,0.523
Jan-94,0.497
Dec-93,0.457
Nov-93,0.53
Oct-93,0.577
Sep-93,0.57
Aug-93,0.593
Jul-93,0.591
Jun-93,0.64
May-93,0.682
Apr-93,0.658
Mar-93,0.619
Feb-93,0.595
Jan-93,0.591
Dec-92,0.587
Nov-92,0.634
Oct-92,0.671
Sep-92,0.678
Aug-92,0.66
Jul-92,0.662
Jun-92,0.718
May-92,0.703
Apr-92,0.652
Mar-92,0.598
Feb-92,0.578
Jan-92,0.561
Dec-91,0.608
Nov-91,0.691
Oct-91,0.67
Sep-91,0.667
Aug-91,0.728
Jul-91,0.695
Jun-91,0.71
May-91,0.754
Apr-91,0.733
Mar-91,0.685
Feb-91,0.657
Jan-91,0.735
Dec-90,0.747
Nov-90,0.936
Oct-90,0.975
Sep-90,0.955
Aug-90,0.855
Jul-90,0.668
Jun-90,0.693
May-90,0.721
Apr-90,0.686
Mar-90,0.636
Feb-90,0.649
Jan-90,0.693
Dec-89,0.604
Nov-89,0.597
Oct-89,0.627
Sep-89,0.645
Aug-89,0.589
Jul-89,0.658
Jun-89,0.719
May-89,0.743
Apr-89,0.725
Mar-89,0.592
Feb-89,0.547
Jan-89,0.54
Dec-88,0.522
Nov-88,0.574
Oct-88,0.542
Sep-88,0.542
Aug-88,0.603
Jul-88,0.62
Jun-88,0.565
May-88,0.585
Apr-88,0.576
Mar-88,0.514
Feb-88,0.509
Jan-88,0.497
Dec-87,0.514
Nov-87,0.577
Oct-87,0.576
Sep-87,0.581
Aug-87,0.634
Jul-87,0.632
Jun-87,0.606
May-87,0.586
Apr-87,0.562
Mar-87,0.547
Feb-87,0.521
Jan-87,0.531
Dec-86,0.467
Nov-86,0.463
Oct-86,0.444
Sep-86,0.464
Aug-86,0.465
Jul-86,0.416
Jun-86,0.535
May-86,0.58
Apr-86,0.485
Mar-86,0.459
Feb-86,0.591
Jan-86,0.744
Dec-85,0.815
Nov-85,0.843
Oct-85,0.811
Sep-85,0.819
Aug-85,0.856
Jul-85,0.877
Jun-85,0.882
May-85,0.871
Apr-85,0.857
Mar-85,0.808
Feb-85,0.747
Jan-85,0.729
Dec-84,0.768
Nov-84,0.819
Oct-84,0.842
Sep-84,0.839
Aug-84,0.823
Jul-84,0.83
Jun-84,0.855
May-84,0.87
Apr-84,0.879
Mar-84,0.862
Feb-84,0.854
Jan-84,0.834
Dec-83,0.839
Nov-83,0.883
Oct-83,0.908
Sep-83,0.921
Aug-83,0.929
Jul-83,0.932
Jun-83,0.923
May-83,0.916
Apr-83,0.887
Mar-83,0.847
Feb-83,0.876
Jan-83,0.896
